<?xml version="1.0" encoding="UTF-8" standalone="no"?>
<!-- Created with Inkscape (http://www.inkscape.org/) -->

<svg
   width="20"
   height="20"
   viewBox="0 0 5.2916664 5.2916668"
   version="1.1"
   id="svg38609"
   inkscape:version="1.2 (1:1.2.1+202207142221+cd75a1ee6d)"
   sodipodi:docname="add.svg"
   xmlns:inkscape="http://www.inkscape.org/namespaces/inkscape"
   xmlns:sodipodi="http://sodipodi.sourceforge.net/DTD/sodipodi-0.dtd"
   xmlns="http://www.w3.org/2000/svg"
   xmlns:svg="http://www.w3.org/2000/svg">
  <sodipodi:namedview
     id="namedview38611"
     pagecolor="#ffffff"
     bordercolor="#666666"
     borderopacity="1.0"
     inkscape:showpageshadow="false"
     inkscape:pageopacity="0.0"
     inkscape:pagecheckerboard="0"
     inkscape:deskcolor="#d1d1d1"
     inkscape:document-units="px"
     showgrid="false"
     inkscape:zoom="9.448059"
     inkscape:cx="17.358063"
     inkscape:cy="23.179364"
     inkscape:window-width="1920"
     inkscape:window-height="1171"
     inkscape:window-x="1920"
     inkscape:window-y="0"
     inkscape:window-maximized="1"
     inkscape:current-layer="layer1" />
  <defs
     id="defs38606" />
  <g
     inkscape:label="Calque 1"
     inkscape:groupmode="layer"
     id="layer1">
    <g
       id="g4711"
       transform="matrix(1.6688527,0,0,1.6688527,-52.774316,-14.482693)">
      <rect
         style="fill:#5a8c5a;fill-opacity:1;stroke:none;stroke-width:1.06714;stroke-linecap:round;stroke-linejoin:round;stroke-dasharray:none;stroke-opacity:1"
         id="rect3764"
         width="3.170841"
         height="3.170841"
         x="31.623112"
         y="8.6782331"
         rx="0.60000002"
         ry="0.60000002" />
      <rect
         style="fill:#8baf8c;fill-opacity:1;stroke:none;stroke-width:0.866568;stroke-linecap:round;stroke-linejoin:round;stroke-dasharray:none;stroke-opacity:1"
         id="rect3764-7"
         width="2.5748727"
         height="2.5748727"
         x="31.921095"
         y="8.9762173"
         rx="0.38699999"
         ry="0.38699999" />
      <rect
         style="fill:#5a8c5a;fill-opacity:1;stroke:none;stroke-width:0.596829;stroke-linecap:round;stroke-linejoin:round;stroke-dasharray:none;stroke-opacity:1"
         id="rect4429"
         width="2.7678127"
         height="1.3199888"
         x="31.800566"
         y="10.25843" />
      <path
         id="path3856"
         style="color:#000000;fill:#ffffff;stroke-linecap:round;-inkscape-stroke:none"
         d="m 33.208826,8.9705119 a 0.30341399,0.30341399 0 0 0 -0.304375,0.3028239 v 0.6878133 h -0.685746 a 0.30341399,0.30341399 0 0 0 -0.304891,0.3023069 0.30341399,0.30341399 0 0 0 0.304891,0.302824 h 0.685746 v 0.687813 a 0.30341399,0.30341399 0 0 0 0.304375,0.302308 0.30341399,0.30341399 0 0 0 0.302824,-0.302308 V 10.56628 h 0.687813 A 0.30341399,0.30341399 0 0 0 34.50177,10.263456 0.30341399,0.30341399 0 0 0 34.199463,9.9611491 H 33.51165 V 9.2733358 A 0.30341399,0.30341399 0 0 0 33.208826,8.9705119 Z" />
    </g>
  </g>
</svg>
