<?xml version="1.0" encoding="UTF-8" standalone="no"?>
<!-- Created with Inkscape (http://www.inkscape.org/) -->

<svg
   width="20"
   height="20"
   viewBox="0 0 5.2916664 5.2916668"
   version="1.1"
   id="svg38609"
   inkscape:version="1.2 (1:1.2.1+202207142221+cd75a1ee6d)"
   sodipodi:docname="import_assay.svg"
   xmlns:inkscape="http://www.inkscape.org/namespaces/inkscape"
   xmlns:sodipodi="http://sodipodi.sourceforge.net/DTD/sodipodi-0.dtd"
   xmlns="http://www.w3.org/2000/svg"
   xmlns:svg="http://www.w3.org/2000/svg">
  <sodipodi:namedview
     id="namedview38611"
     pagecolor="#ffffff"
     bordercolor="#666666"
     borderopacity="1.0"
     inkscape:showpageshadow="false"
     inkscape:pageopacity="0.0"
     inkscape:pagecheckerboard="0"
     inkscape:deskcolor="#d1d1d1"
     inkscape:document-units="px"
     showgrid="false"
     inkscape:zoom="9.448059"
     inkscape:cx="17.410984"
     inkscape:cy="23.179364"
     inkscape:window-width="1920"
     inkscape:window-height="1171"
     inkscape:window-x="1920"
     inkscape:window-y="0"
     inkscape:window-maximized="1"
     inkscape:current-layer="layer1" />
  <defs
     id="defs38606" />
  <g
     inkscape:label="Calque 1"
     inkscape:groupmode="layer"
     id="layer1">
    <rect
       style="fill:#cccccc;fill-opacity:0;stroke:none;stroke-width:0.472478;stroke-linecap:round;stroke-linejoin:round;stroke-dasharray:none;stroke-opacity:1"
       id="rect1865-2-8-5"
       width="5.2916665"
       height="5.2916665"
       x="0"
       y="0"
       inkscape:export-filename="../../../import_collar.png"
       inkscape:export-xdpi="192"
       inkscape:export-ydpi="192" />
    <g
       id="g36270-3"
       transform="matrix(1.8942038,0,0,1.8942038,-27.525222,-114.7039)">
      <g
         id="g6498-3-3-1"
         transform="translate(8.7797198,54.74511)">
        <rect
           style="opacity:1;fill:#808080;fill-opacity:1;stroke:none;stroke-width:0.624999;stroke-linecap:round;stroke-linejoin:round;stroke-dasharray:none;stroke-opacity:1"
           id="rect6268-9-2-4"
           width="1.1437849"
           height="1.4697897"
           x="7.3539276"
           y="5.8664718"
           rx="0.2"
           ry="0.2" />
        <rect
           style="opacity:0.902339;fill:#ffffff;fill-opacity:1;stroke:none;stroke-width:0.515508;stroke-linecap:round;stroke-linejoin:round;stroke-dasharray:none;stroke-opacity:1"
           id="rect6268-4-19-1-6"
           width="0.9163546"
           height="1.2480963"
           x="7.4676428"
           y="5.9773188"
           rx="0.14"
           ry="0.14" />
      </g>
      <rect
         style="fill:#707070;fill-opacity:1;stroke:none;stroke-width:0.428437;stroke-linecap:round;stroke-linejoin:round;stroke-dasharray:none;stroke-opacity:1"
         id="rect7278-6-5-9"
         width="0.23837352"
         height="0.11918676"
         x="16.307632"
         y="60.844265" />
      <rect
         style="fill:#707070;fill-opacity:1;stroke:none;stroke-width:0.428437;stroke-linecap:round;stroke-linejoin:round;stroke-dasharray:none;stroke-opacity:1"
         id="rect7278-7-9-9-4"
         width="0.23837352"
         height="0.11918676"
         x="16.586351"
         y="60.844265" />
      <rect
         style="fill:#707070;fill-opacity:1;stroke:none;stroke-width:0.428437;stroke-linecap:round;stroke-linejoin:round;stroke-dasharray:none;stroke-opacity:1"
         id="rect7278-8-33-9-2"
         width="0.23837352"
         height="0.11918676"
         x="16.865072"
         y="60.844265" />
      <rect
         style="fill:#707070;fill-opacity:1;stroke:none;stroke-width:0.428437;stroke-linecap:round;stroke-linejoin:round;stroke-dasharray:none;stroke-opacity:1"
         id="rect7278-5-80-1-2"
         width="0.23837352"
         height="0.11918676"
         x="16.307632"
         y="61.021309" />
      <rect
         style="fill:#707070;fill-opacity:1;stroke:none;stroke-width:0.428437;stroke-linecap:round;stroke-linejoin:round;stroke-dasharray:none;stroke-opacity:1"
         id="rect7278-7-0-56-4-6"
         width="0.23837352"
         height="0.11918676"
         x="16.586351"
         y="61.021309" />
      <rect
         style="fill:#707070;fill-opacity:1;stroke:none;stroke-width:0.428437;stroke-linecap:round;stroke-linejoin:round;stroke-dasharray:none;stroke-opacity:1"
         id="rect7278-8-3-6-9-4"
         width="0.23837352"
         height="0.11918676"
         x="16.865072"
         y="61.021309" />
      <rect
         style="fill:#707070;fill-opacity:1;stroke:none;stroke-width:0.428437;stroke-linecap:round;stroke-linejoin:round;stroke-dasharray:none;stroke-opacity:1"
         id="rect7278-1-40-1-1"
         width="0.23837352"
         height="0.11918676"
         x="16.307632"
         y="61.198357" />
      <rect
         style="fill:#707070;fill-opacity:1;stroke:none;stroke-width:0.428437;stroke-linecap:round;stroke-linejoin:round;stroke-dasharray:none;stroke-opacity:1"
         id="rect7278-7-06-0-0-2"
         width="0.23837352"
         height="0.11918676"
         x="16.586351"
         y="61.198357" />
      <rect
         style="fill:#707070;fill-opacity:1;stroke:none;stroke-width:0.428437;stroke-linecap:round;stroke-linejoin:round;stroke-dasharray:none;stroke-opacity:1"
         id="rect7278-8-32-4-7-8"
         width="0.23837352"
         height="0.11918676"
         x="16.865072"
         y="61.198357" />
      <rect
         style="fill:#707070;fill-opacity:1;stroke:none;stroke-width:0.428437;stroke-linecap:round;stroke-linejoin:round;stroke-dasharray:none;stroke-opacity:1"
         id="rect7278-5-6-6-5-8"
         width="0.23837352"
         height="0.11918676"
         x="16.307632"
         y="61.375404" />
      <rect
         style="fill:#707070;fill-opacity:1;stroke:none;stroke-width:0.428437;stroke-linecap:round;stroke-linejoin:round;stroke-dasharray:none;stroke-opacity:1"
         id="rect7278-7-0-1-2-8-9"
         width="0.23837352"
         height="0.11918676"
         x="16.586351"
         y="61.375404" />
      <rect
         style="fill:#707070;fill-opacity:1;stroke:none;stroke-width:0.428437;stroke-linecap:round;stroke-linejoin:round;stroke-dasharray:none;stroke-opacity:1"
         id="rect7278-8-3-5-6-7-2"
         width="0.23837352"
         height="0.11918676"
         x="16.865072"
         y="61.375404" />
      <rect
         style="fill:#707070;fill-opacity:1;stroke:none;stroke-width:0.428437;stroke-linecap:round;stroke-linejoin:round;stroke-dasharray:none;stroke-opacity:1"
         id="rect7278-4-7-0-8"
         width="0.23837352"
         height="0.11918676"
         x="16.307632"
         y="61.552452" />
      <rect
         style="fill:#707070;fill-opacity:1;stroke:none;stroke-width:0.428437;stroke-linecap:round;stroke-linejoin:round;stroke-dasharray:none;stroke-opacity:1"
         id="rect7278-7-7-5-4-8"
         width="0.23837352"
         height="0.11918676"
         x="16.586351"
         y="61.552452" />
      <rect
         style="fill:#707070;fill-opacity:1;stroke:none;stroke-width:0.428437;stroke-linecap:round;stroke-linejoin:round;stroke-dasharray:none;stroke-opacity:1"
         id="rect7278-8-6-69-8-8"
         width="0.23837352"
         height="0.11918676"
         x="16.865072"
         y="61.552452" />
      <rect
         style="fill:#707070;fill-opacity:1;stroke:none;stroke-width:0.428437;stroke-linecap:round;stroke-linejoin:round;stroke-dasharray:none;stroke-opacity:1"
         id="rect7278-5-69-8-0-6"
         width="0.23837352"
         height="0.11918676"
         x="16.307632"
         y="61.7295" />
      <rect
         style="fill:#707070;fill-opacity:1;stroke:none;stroke-width:0.428437;stroke-linecap:round;stroke-linejoin:round;stroke-dasharray:none;stroke-opacity:1"
         id="rect7278-7-0-3-7-4-8"
         width="0.23837352"
         height="0.11918676"
         x="16.586351"
         y="61.7295" />
      <rect
         style="fill:#707070;fill-opacity:1;stroke:none;stroke-width:0.428437;stroke-linecap:round;stroke-linejoin:round;stroke-dasharray:none;stroke-opacity:1"
         id="rect7278-8-3-7-2-2-3"
         width="0.23837352"
         height="0.11918676"
         x="16.865072"
         y="61.7295" />
    </g>
    <g
       id="g28344-8-3"
       transform="matrix(0.60329754,0,0,0.60329754,-2.5026792,-9.611373)">
      <rect
         style="fill:#cccccc;fill-opacity:0;stroke:none;stroke-width:0.472478;stroke-linecap:round;stroke-linejoin:round;stroke-dasharray:none;stroke-opacity:1"
         id="rect1865-5-8-9-8"
         width="5.2916665"
         height="5.2916665"
         x="4.5877123"
         y="19.503567"
         inkscape:export-filename="../../../add_assay.png"
         inkscape:export-xdpi="192"
         inkscape:export-ydpi="192" />
      <path
         id="rect25806-3-0"
         style="fill:#42aee0;fill-opacity:1;stroke:none;stroke-width:0.606119;stroke-linecap:round;stroke-linejoin:round;stroke-dasharray:none;stroke-opacity:1"
         d="m 7.5504435,19.881991 v 4.534606 H 7.8253621 V 24.267769 H 8.3550456 V 23.992334 H 7.8253621 v -0.0894 H 8.3550456 V 23.627498 H 7.8253621 v -0.0894 H 8.5353963 V 23.262663 H 7.8253621 v -0.0894 H 9.6397217 V 22.898344 H 7.8253621 v -0.08992 h 1.026294 v -0.274919 h -1.026294 v -0.08992 H 8.3550456 V 22.168673 H 7.8253621 v -0.0894 H 8.7710409 V 21.803837 H 7.8253621 v -0.0894 H 8.1628092 V 21.439001 H 7.8253621 v -0.0894 H 8.3550456 V 21.074166 H 7.8253621 v -0.0894 H 9.2294108 V 20.70933 H 7.8253621 v -0.0894 H 8.9358887 V 20.345011 H 7.8253621 v -0.08992 H 8.3550456 V 19.980176 H 7.8253621 v -0.09819 z" />
      <path
         id="rect25806-2-6-4"
         style="fill:#2195c9;fill-opacity:1;stroke:none;stroke-width:0.606119;stroke-linecap:round;stroke-linejoin:round;stroke-dasharray:none;stroke-opacity:1"
         d="m 7.5504435,19.881991 v 4.534606 h 0.15398 c 0,-1.952939 0.025901,-3.229318 0.025901,-4.534611 z"
         sodipodi:nodetypes="ccccc" />
      <rect
         style="fill:#fe3326;fill-opacity:1;stroke:none;stroke-width:0.495573;stroke-linecap:round;stroke-linejoin:round;stroke-dasharray:none;stroke-opacity:1"
         id="rect9481-1-8-7"
         width="2.5563834"
         height="1.1332945"
         x="4.8272634"
         y="19.881838"
         rx="0.40000001"
         ry="0.40000001" />
      <rect
         style="fill:#fe3326;fill-opacity:1;stroke:none;stroke-width:0.495573;stroke-linecap:round;stroke-linejoin:round;stroke-dasharray:none;stroke-opacity:1"
         id="rect9481-73-8-0-6"
         width="2.5563834"
         height="1.1332945"
         x="4.8272634"
         y="20.413836" />
      <rect
         style="fill:#fdc514;fill-opacity:1;stroke:none;stroke-width:0.495573;stroke-linecap:round;stroke-linejoin:round;stroke-dasharray:none;stroke-opacity:1"
         id="rect9481-9-9-2-8"
         width="2.5563834"
         height="1.1332945"
         x="4.8272634"
         y="21.015663" />
      <rect
         style="fill:#42aee0;fill-opacity:1;stroke:none;stroke-width:0.495573;stroke-linecap:round;stroke-linejoin:round;stroke-dasharray:none;stroke-opacity:1"
         id="rect9481-76-6-6-1-9"
         width="2.5563834"
         height="1.1332945"
         x="4.8272634"
         y="22.75132" />
      <rect
         style="fill:#81fe23;fill-opacity:1;stroke:none;stroke-width:0.495573;stroke-linecap:round;stroke-linejoin:round;stroke-dasharray:none;stroke-opacity:1"
         id="rect9481-7-4-0-0"
         width="2.5563834"
         height="1.1332945"
         x="4.8272634"
         y="22.14949" />
      <rect
         style="fill:#42aee0;fill-opacity:1;stroke:none;stroke-width:0.495573;stroke-linecap:round;stroke-linejoin:round;stroke-dasharray:none;stroke-opacity:1"
         id="rect9481-76-3-5-6"
         width="2.5563834"
         height="1.1332945"
         x="4.8272634"
         y="23.283316"
         rx="0.40000001"
         ry="0.40000001" />
      <path
         id="rect9481-1-6-1-8"
         style="fill:#929292;fill-opacity:0.432377;stroke:none;stroke-width:0.495573;stroke-linecap:round;stroke-linejoin:round;stroke-dasharray:none;stroke-opacity:1"
         d="m 5.2272389,19.881838 c -0.2215998,0 -0.3999756,0.178376 -0.3999756,0.399976 v 0.333313 0.932242 0.808737 1.120345 0.207222 0.201021 0.132292 c 0,0.2216 0.1783758,0.399976 0.3999756,0.399976 h 1.756482 C 5.7290705,24.285466 5.3383751,21.599231 5.2272389,19.881838 Z"
         sodipodi:nodetypes="csccccccsscc" />
    </g>
    <g
       id="g36748-8"
       transform="translate(-11.857179,-60.548633)">
      <path
         id="path9759-4-6-3"
         style="color:#000000;fill:#808080;fill-opacity:1;stroke-width:0.776933;stroke-linecap:round;stroke-linejoin:round"
         d="m 13.648135,62.64788 0.614683,-0.637969 H 13.916733 V 61.49614 c 0,-0.141799 0.10552,-0.245713 0.247318,-0.245713 h 0.475145 v -0.595011 h -0.475145 c -0.460788,0 -0.840723,0.379935 -0.840723,0.840724 v 0.513771 h -0.289876 z"
         sodipodi:nodetypes="cccssccssccc" />
      <path
         id="path9759-4-7-1-3"
         style="color:#000000;fill:#4d4d4d;fill-opacity:1;stroke-width:0.776933;stroke-linecap:round;stroke-linejoin:round"
         d="m 13.648135,62.64788 c -0.214198,-0.92868 -0.231872,-1.867578 0.991061,-1.778614 v -0.213849 h -0.475145 c -0.460788,0 -0.840722,0.379934 -0.840722,0.840723 v 0.513771 h -0.289876 z"
         sodipodi:nodetypes="cccssccc" />
    </g>
  </g>
</svg>
