<?xml version="1.0" encoding="UTF-8" standalone="no"?>
<!-- Created with Inkscape (http://www.inkscape.org/) -->

<svg
   width="20"
   height="20"
   viewBox="0 0 5.2916664 5.2916668"
   version="1.1"
   id="svg38609"
   inkscape:version="1.2 (1:1.2.1+202207142221+cd75a1ee6d)"
   sodipodi:docname="inspector_line.svg"
   xmlns:inkscape="http://www.inkscape.org/namespaces/inkscape"
   xmlns:sodipodi="http://sodipodi.sourceforge.net/DTD/sodipodi-0.dtd"
   xmlns="http://www.w3.org/2000/svg"
   xmlns:svg="http://www.w3.org/2000/svg">
  <sodipodi:namedview
     id="namedview38611"
     pagecolor="#ffffff"
     bordercolor="#666666"
     borderopacity="1.0"
     inkscape:showpageshadow="false"
     inkscape:pageopacity="0.0"
     inkscape:pagecheckerboard="0"
     inkscape:deskcolor="#d1d1d1"
     inkscape:document-units="px"
     showgrid="false"
     inkscape:zoom="9.448059"
     inkscape:cx="17.410984"
     inkscape:cy="23.179364"
     inkscape:window-width="1920"
     inkscape:window-height="1171"
     inkscape:window-x="1920"
     inkscape:window-y="0"
     inkscape:window-maximized="1"
     inkscape:current-layer="layer1" />
  <defs
     id="defs38606" />
  <g
     inkscape:label="Calque 1"
     inkscape:groupmode="layer"
     id="layer1">
    <rect
       style="fill:#cccccc;fill-opacity:0;stroke:none;stroke-width:0.472478;stroke-linecap:round;stroke-linejoin:round;stroke-dasharray:none;stroke-opacity:1"
       id="rect1865-5-8-2"
       width="5.2916665"
       height="5.2916665"
       x="0"
       y="0"
       inkscape:export-filename="../../../inspector_line.png"
       inkscape:export-xdpi="192"
       inkscape:export-ydpi="192" />
    <path
       id="rect25806-8"
       style="fill:#42aee0;fill-opacity:1;stroke:none;stroke-width:0.606119;stroke-linecap:round;stroke-linejoin:round;stroke-dasharray:none;stroke-opacity:1"
       d="M 1.904398,0.37842378 V 4.9130298 H 2.179316 V 4.7642018 H 2.709 V 4.4887668 H 2.179316 v -0.0894 H 2.709 V 4.1239308 H 2.179316 v -0.0894 H 2.889351 V 3.7590958 H 2.179316 v -0.0894 h 1.81436 v -0.274919 h -1.81436 v -0.08992 H 3.20561 V 3.0299378 H 2.179316 v -0.08992 H 2.709 V 2.6651058 H 2.179316 v -0.0894 H 3.124995 V 2.3002698 H 2.179316 v -0.0894 H 2.516764 V 1.9354338 H 2.179316 v -0.0894 H 2.709 V 1.5705988 H 2.179316 v -0.0894 H 3.583365 V 1.2057628 H 2.179316 v -0.0894 H 3.289843 V 0.84144378 H 2.179316 v -0.08992 H 2.709 v -0.274915 H 2.179316 v -0.09819 z" />
    <path
       id="rect25806-2-3"
       style="fill:#2195c9;fill-opacity:1;stroke:none;stroke-width:0.606119;stroke-linecap:round;stroke-linejoin:round;stroke-dasharray:none;stroke-opacity:1"
       d="M 1.904398,0.37842378 V 4.9130298 h 0.15398 c 0,-1.952939 0.0259,-3.229318 0.0259,-4.53461102 z"
       sodipodi:nodetypes="ccccc" />
    <path
       style="fill:none;stroke:#000000;stroke-width:0.265;stroke-linecap:round;stroke-linejoin:round;stroke-dasharray:none;stroke-opacity:0.470948"
       d="M 0.46058612,2.4066388 H 4.854889"
       id="path40608" />
    <g
       id="g40641-3"
       transform="rotate(180,3.5097767,21.071163)">
      <path
         style="fill:none;stroke:#000000;stroke-width:0.265;stroke-linecap:round;stroke-linejoin:round;stroke-dasharray:none;stroke-opacity:0.517708"
         d="m 2.3535288,39.311233 0.4244557,0.424455"
         id="path40610-6" />
      <path
         style="fill:none;stroke:#000000;stroke-width:0.265;stroke-linecap:round;stroke-linejoin:round;stroke-dasharray:none;stroke-opacity:0.517708"
         d="m 2.3535295,40.160143 0.424455,-0.424455"
         id="path40610-9-0" />
    </g>
    <circle
       style="fill:#21c521;fill-opacity:1;stroke:none;stroke-width:0.365142;stroke-linecap:round;stroke-linejoin:round;stroke-dasharray:none;stroke-dashoffset:0;stroke-opacity:0.517708"
       id="path41035-5"
       cx="1.0174503"
       cy="1.4937325"
       r="0.70067859" />
    <path
       id="path41035"
       style="fill:#1a991a;stroke-width:0.365142;stroke-linecap:round;stroke-linejoin:round;stroke-opacity:0.517708"
       d="m 1.4015883,2.0798208 c -0.1103105,0.07245 -0.2423028,0.11459 -0.384138,0.11459 -0.38697388,0 -0.70067838,-0.313704 -0.70067858,-0.700678 -1e-7,-0.233547 0.1142629,-0.440407 0.2899354,-0.56772502 0.2624632,-0.07708 0.40102808,1.03129102 0.79488118,1.15381302 z"
       sodipodi:nodetypes="csscc" />
    <g
       aria-label="i"
       transform="matrix(1.5072839,0,0,0.66344502,-4.5625911,-36.928417)"
       id="text41419"
       style="font-size:1.66425px;line-height:1.25;letter-spacing:0px;word-spacing:0px;fill:#ffffff;stroke-width:0.0416062">
      <path
         d="m 3.6289147,57.449892 v -0.274035 h 0.146272 v 0.274035 z m 0,1.06616 v -0.879257 h 0.146272 v 0.879257 z"
         id="path41692"
         sodipodi:nodetypes="cccccccccc" />
    </g>
  </g>
</svg>
